…
<p>
E agora, o pulo do gato. Vamos criar as linhas que ligam os estados
entre si e em seguida adicionar à tabela que informa as relações de
fluxo. Portanto, para cada relação entre Estado de nascimento/residencia
temos uma feição de linha e o valor que representa a porcentagem de
residentes.
</p>
<pre class="r"><code>coord &lt;- df %&gt;% left_join(estado_cent, by = c(&quot;nasce&quot; = &quot;estado&quot;)) %&gt;% left_join(estado_cent, by = c(&quot;reside&quot; = &quot;estado&quot;)) %&gt;% filter(nasce %in% estados_interesse) linhas &lt;- gcIntermediate( select(coord, lon.x, lat.x), select(coord, lon.y, lat.y), sp = TRUE, addStartEnd = TRUE ) %&gt;% st_as_sf() fluxo_linha &lt;- coord %&gt;% select(nasce, reside, valor) %&gt;% bind_cols(linhas) %&gt;% left_join(estado_cent, by = c(&quot;reside&quot; = &quot;estado&quot;)) %&gt;% mutate(nasce = fct_relevel(nasce, estados_interesse)) %&gt;% st_as_sf() fluxo_linha</code></pre>
<pre><code>## Simple feature collection with 36 features and 5 fields
## geometry type: LINESTRING
## dimension: XY
## bbox: xmin: -64.65314 ymin: -29.70568 xmax: -36.62494 ymax: 2.084226
## epsg (SRID): 4326
## proj4string: +proj=longlat +ellps=WGS84 +no_defs
## # A tibble: 36 x 6
## nasce reside valor lon lat geometry
## &lt;fct&gt; &lt;chr&gt; &lt;dbl&gt; &lt;dbl&gt; &lt;dbl&gt; &lt;LINESTRING [&#xC2;&#xB0;]&gt;
## 1 Rond&#xF4;nia Rond&#xF4;nia 57.4 -62.8 -10.9 (-62.84197 -10.91322, -6~
## 2 Roraima Amazonas 5.16 -64.7 -4.15 (-61.39928 2.084226, -61~
## 3 Roraima Roraima 55.6 -61.4 2.08 (-61.39928 2.084226, -61~
## 4 Roraima Par&#xE1; 6.54 -53.1 -3.97 (-61.39928 2.084226, -61~
## 5 Roraima Maranh&#xE3;o 19.0 -45.3 -5.06 (-61.39928 2.084226, -61~
## 6 Distrito Federal Maranh&#xE3;o 4.42 -45.3 -5.06 (-47.79736 -15.78069, -4~
## 7 Cear&#xE1; Piau&#xED; 0.390 -43.0 -7.39 (-39.61569 -5.093345, -3~
## 8 Distrito Federal Piau&#xED; 5.08 -43.0 -7.39 (-47.79736 -15.78069, -4~
## 9 Roraima Cear&#xE1; 2.76 -39.6 -5.09 (-61.39928 2.084226, -60~
## 10 Cear&#xE1; Cear&#xE1; 95.8 -39.6 -5.09 (-39.61569 -5.093345, -3~
## # ... with 26 more rows</code></pre>
<p>
Para deixar o gráfico um pouco mais bonito, vamos dar cor ao valor que
estamos estudando. Mas agora a feição será o polígono que representa o
estado de residentes.
</p>
<pre class="r"><code>fluxo_poligono &lt;- brmap_estado %&gt;% left_join(df, by = c(&quot;estado&quot; = &quot;reside&quot;)) %&gt;% rename(reside = estado) %&gt;% filter(nasce %in% estados_interesse) %&gt;% mutate(nasce = fct_relevel(nasce, estados_interesse)) %&gt;% select(nasce, reside, valor) fluxo_poligono</code></pre>
<pre><code>## Simple feature collection with 36 features and 3 fields
## geometry type: POLYGON
## dimension: XY
## bbox: xmin: -73.80156 ymin: -33.75118 xmax: -34.79288 ymax: 5.271841
## epsg (SRID): 4674
## proj4string: +proj=longlat +ellps=GRS80 +towgs84=0,0,0,0,0,0,0 +no_defs
## # A tibble: 36 x 4
## nasce reside valor geometry
## &lt;fct&gt; &lt;chr&gt; &lt;dbl&gt; &lt;POLYGON [&#xC2;&#xB0;]&gt;
## 1 Rond&#xF4;nia Rond&#xF4;nia 57.4 ((-62.86662 -7.975868, -62.86017 -7.9~
## 2 Roraima Amazonas 5.16 ((-67.32609 2.029714, -67.31682 2.001~
## 3 Roraima Roraima 55.6 ((-60.20051 5.264343, -60.19828 5.260~
## 4 Roraima Par&#xE1; 6.54 ((-54.95431 2.583692, -54.93542 2.518~
## 5 Roraima Maranh&#xE3;o 19.0 ((-45.84073 -1.045485, -45.84099 -1.0~
## 6 Distrito Federal Maranh&#xE3;o 4.42 ((-45.84073 -1.045485, -45.84099 -1.0~
## 7 Cear&#xE1; Piau&#xED; 0.390 ((-41.74605 -2.803497, -41.74241 -2.8~
## 8 Distrito Federal Piau&#xED; 5.08 ((-41.74605 -2.803497, -41.74241 -2.8~
## 9 Roraima Cear&#xE1; 2.76 ((-40.49717 -2.784509, -40.49173 -2.7~
## 10 Cear&#xE1; Cear&#xE1; 95.8 ((-40.49717 -2.784509, -40.49173 -2.7~
## # ... with 26 more rows</code></pre>
…
