…
dt[month == 1 & day == 1, `:=`( month = 7, day = 7
)] head(dt[, .(month, day)])
#> month day
#> 1: 7 7
#> 2: 7 7
#> 3: 7 7
#> 4: 7 7
#> 5: 7 7
#> 6: 7 7

 Infelizmente, o dplyr não possui uma forma tão conveniente de tratar esses casos. A recomendação semioficial é usar vários ifelses:
 
library(dplyr) flights %>% mutate( month = ifelse(month == 1 & day == 1, 7, month), day = ifelse(month == 1 & day == 1, 7, day) ) %>% select(month, day)
#> # A tibble: 336,776 x 2
#> month day
#> <dbl> <int>
#> 1 7 1
#> 2 7 1
#> 3 7 1
#> 4 7 1
#> 5 7 1
#> 6 7 1
#> 7 7 1
#> 8 7 1
#> 9 7 1
#> 10 7 1
#> # ... with 336,766 more rows

 Opa! Ainda não está correto. Há diferenças semânticas fortes entre o := do data.table e o mutate. O data.table primeiro descobre em quais linhas as operações devem ser realizadas e só depois as executa. O código dplyr acima não: a condição no ifelse é reavaliada a cada coluna alterada. Além disso, essas operações são feitas no escopo da tabela no estado em que estava antes da execução de qualquer modificação, enquanto o mutate sempre usa seu estado mais recente. É por isso que o resultado final não é o esperado: no momento em que a linha
 
day = ifelse(month == 1 & day == 1, 7, day)

 é executada, os valores em month já foram modificados para 7 (onde foi o caso), a condição falha e os valores armazenados em day não são alterados. No entanto, um workaround é possível: podemos criar uma coluna temporária para armazenar o resultado da condição do ifelse e apagá-la depois das modificações:
 
flights %>% mutate( condicao = month == 1 & day == 1, month = ifelse(condicao, 7, month), day = ifelse(condicao, 7, day), condicao = NULL ) %>% select(month, day)
#> # A tibble: 336,776 x 2
#> month day
#> <dbl> <dbl>
#> 1 7 7
#> 2 7 7
#> 3 7 7
#> 4 7 7
#> 5 7 7
#> 6 7 7
#> 7 7 7
#> 8 7 7
#> 9 7 7
#> 10 7 7
#> # ... with 336,766 more rows

 Ok, funciona, mas ainda há duas inconveniências em relação à versão data.table: primeiro, precisamos manipular diretamente uma coluna lógica temporária, e depois, ainda temos que repetir explicitamente o nome da coluna dentro dos ifelses para que o valor atual seja mantido quando a condição falhar.
 Percebi, então, que o mutate é um verbo inconveniente nesse tipo de situação. Felizmente, o Tidyverse lançou, há algum tempo, o framework de tidy evaluation que permite, entre outras coisas, criar novos verbos para o dplyr com alguma facilidade. O objetivo desse post é criar verbos que funcionem de forma similar à sentença dt[cond, col := val] do data.table dentro do dplyr.
 Criando o verbo transform_where
 A solução que desenvolvi para essa situação foi o verbo transform_where. Aqui está um exemplo do seu funcionamento:
 
flights %>% transform_where( month == 1 & day == 1, month = 7, day = 7 ) %>% select(month, day)
#> # A tibble: 336,776 x 2
#> month day
#> <dbl> <dbl>
#> 1 7 7
#> 2 7 7
#> 3 7 7
#> 4 7 7
#> 5 7 7
#> 6 7 7
#> 7 7 7
#> 8 7 7
#> 9 7 7
#> 10 7 7
#> # ... with 336,766 more rows
…
